dplyr基础 - Hexo
…
mtcars %>% arrange(cyl,disp)
>> # A tibble: 32 x 11
>>      mpg   cyl  disp    hp  drat    wt  qsec    vs    am  gear  carb
>>    <dbl> <dbl> <dbl> <dbl> <dbl> <dbl> <dbl> <dbl> <dbl> <dbl> <dbl>
>>  1  33.9     4  71.1    65  4.22  1.84  19.9     1     1     4     1
>>  2  30.4     4  75.7    52  4.93  1.62  18.5     1     1     4     2
>>  3  32.4     4  78.7    66  4.08  2.2   19.5     1     1     4     1
>>  4  27.3     4  79      66  4.08  1.94  18.9     1     1     4     1
>>  5  30.4     4  95.1   113  3.77  1.51  16.9     1     1     5     2
>>  6  22.8     4 108      93  3.85  2.32  18.6     1     1     4     1
>>  7  21.5     4 120.     97  3.7   2.46  20.0     1     0     3     1
>>  8  26       4 120.     91  4.43  2.14  16.7     0     1     5     2
>>  9  21.4     4 121     109  4.11  2.78  18.6     1     1     4     2
>> 10  22.8     4 141.     95  3.92  3.15  22.9     1     0     4     2
>> # ... with 22 more rows
…
mtcars %>% arrange(desc(cyl),desc(disp))
>> # A tibble: 32 x 11
>>      mpg   cyl  disp    hp  drat    wt  qsec    vs    am  gear  carb
>>    <dbl> <dbl> <dbl> <dbl> <dbl> <dbl> <dbl> <dbl> <dbl> <dbl> <dbl>
>>  1  10.4     8   472   205  2.93  5.25  18.0     0     0     3     4
>>  2  10.4     8   460   215  3     5.42  17.8     0     0     3     4
>>  3  14.7     8   440   230  3.23  5.34  17.4     0     0     3     4
>>  4  19.2     8   400   175  3.08  3.84  17.0     0     0     3     2
>>  5  18.7     8   360   175  3.15  3.44  17.0     0     0     3     2
>>  6  14.3     8   360   245  3.21  3.57  15.8     0     0     3     4
>>  7  15.8     8   351   264  4.22  3.17  14.5     0     1     5     4
>>  8  13.3     8   350   245  3.73  3.84  15.4     0     0     3     4
>>  9  15.5     8   318   150  2.76  3.52  16.9     0     0     3     2
>> 10  15.2     8   304   150  3.15  3.44  17.3     0     0     3     2
>> # ... with 22 more rows
…
mtcars[order(mtcars$cyl,mtcars$disp),,drop= FALSE]
>> # A tibble: 32 x 11
>>      mpg   cyl  disp    hp  drat    wt  qsec    vs    am  gear  carb
>>    <dbl> <dbl> <dbl> <dbl> <dbl> <dbl> <dbl> <dbl> <dbl> <dbl> <dbl>
>>  1  33.9     4  71.1    65  4.22  1.84  19.9     1     1     4     1
>>  2  30.4     4  75.7    52  4.93  1.62  18.5     1     1     4     2
>>  3  32.4     4  78.7    66  4.08  2.2   19.5     1     1     4     1
>>  4  27.3     4  79      66  4.08  1.94  18.9     1     1     4     1
>>  5  30.4     4  95.1   113  3.77  1.51  16.9     1     1     5     2
>>  6  22.8     4 108      93  3.85  2.32  18.6     1     1     4     1
>>  7  21.5     4 120.     97  3.7   2.46  20.0     1     0     3     1
>>  8  26       4 120.     91  4.43  2.14  16.7     0     1     5     2
>>  9  21.4     4 121     109  4.11  2.78  18.6     1     1     4     2
>> 10  22.8     4 141.     95  3.92  3.15  22.9     1     0     4     2
>> # ... with 22 more rows
…
mtcars[order(mtcars$cyl, mtcars$disp, decreasing = TRUE), , drop = FALSE]
>> # A tibble: 32 x 11
>>      mpg   cyl  disp    hp  drat    wt  qsec    vs    am  gear  carb
>>    <dbl> <dbl> <dbl> <dbl> <dbl> <dbl> <dbl> <dbl> <dbl> <dbl> <dbl>
>>  1  10.4     8   472   205  2.93  5.25  18.0     0     0     3     4
>>  2  10.4     8   460   215  3     5.42  17.8     0     0     3     4
>>  3  14.7     8   440   230  3.23  5.34  17.4     0     0     3     4
>>  4  19.2     8   400   175  3.08  3.84  17.0     0     0     3     2
>>  5  18.7     8   360   175  3.15  3.44  17.0     0     0     3     2
>>  6  14.3     8   360   245  3.21  3.57  15.8     0     0     3     4
>>  7  15.8     8   351   264  4.22  3.17  14.5     0     1     5     4
>>  8  13.3     8   350   245  3.73  3.84  15.4     0     0     3     4
>>  9  15.5     8   318   150  2.76  3.52  16.9     0     0     3     2
>> 10  15.2     8   304   150  3.15  3.44  17.3     0     0     3     2
>> # ... with 22 more rows

###or
mtcars[order(-mtcars$cyl, -mtcars$disp), , drop = FALSE]
>> # A tibble: 32 x 11
>>      mpg   cyl  disp    hp  drat    wt  qsec    vs    am  gear  carb
>>    <dbl> <dbl> <dbl> <dbl> <dbl> <dbl> <dbl> <dbl> <dbl> <dbl> <dbl>
>>  1  10.4     8   472   205  2.93  5.25  18.0     0     0     3     4
>>  2  10.4     8   460   215  3     5.42  17.8     0     0     3     4
>>  3  14.7     8   440   230  3.23  5.34  17.4     0     0     3     4
>>  4  19.2     8   400   175  3.08  3.84  17.0     0     0     3     2
>>  5  18.7     8   360   175  3.15  3.44  17.0     0     0     3     2
>>  6  14.3     8   360   245  3.21  3.57  15.8     0     0     3     4
>>  7  15.8     8   351   264  4.22  3.17  14.5     0     1     5     4
>>  8  13.3     8   350   245  3.73  3.84  15.4     0     0     3     4
>>  9  15.5     8   318   150  2.76  3.52  16.9     0     0     3     2
>> 10  15.2     8   304   150  3.15  3.44  17.3     0     0     3     2
>> # ... with 22 more rows
…
starwars %>% filter(species == "Human")
>> # A tibble: 35 x 14
>>    name  height  mass hair_color skin_color eye_color birth_year sex   gender homeworld species films vehicles
>>    <chr>  <int> <dbl> <chr>      <chr>      <chr>          <dbl> <chr> <chr>  <chr>     <chr>   <lis> <list>  
>>  1 Luke~    172    77 blond      fair       blue            19   male  mascu~ Tatooine  Human   <chr~ <chr [2~
>>  2 Dart~    202   136 none       white      yellow          41.9 male  mascu~ Tatooine  Human   <chr~ <chr [0~
>>  3 Leia~    150    49 brown      light      brown           19   fema~ femin~ Alderaan  Human   <chr~ <chr [1~
>>  4 Owen~    178   120 brown, gr~ light      blue            52   male  mascu~ Tatooine  Human   <chr~ <chr [0~
>>  5 Beru~    165    75 brown      light      blue            47   fema~ femin~ Tatooine  Human   <chr~ <chr [0~
>>  6 Bigg~    183    84 black      light      brown           24   male  mascu~ Tatooine  Human   <chr~ <chr [0~
>>  7 Obi-~    182    77 auburn, w~ fair       blue-gray       57   male  mascu~ Stewjon   Human   <chr~ <chr [1~
>>  8 Anak~    188    84 blond      fair       blue            41.9 male  mascu~ Tatooine  Human   <chr~ <chr [2~
>>  9 Wilh~    180    NA auburn, g~ fair       blue            64   male  mascu~ Eriadu    Human   <chr~ <chr [0~
>> 10 Han ~    180    80 brown      fair       brown           29   male  mascu~ Corellia  Human   <chr~ <chr [0~
>> # ... with 25 more rows, and 1 more variable: starships <list>
…
subset(starwars, species == "Human")
>> # A tibble: 35 x 14
>>    name  height  mass hair_color skin_color eye_color birth_year sex   gender homeworld species films vehicles
>>    <chr>  <int> <dbl> <chr>      <chr>      <chr>          <dbl> <chr> <chr>  <chr>     <chr>   <lis> <list>  
>>  1 Luke~    172    77 blond      fair       blue            19   male  mascu~ Tatooine  Human   <chr~ <chr [2~
>>  2 Dart~    202   136 none       white      yellow          41.9 male  mascu~ Tatooine  Human   <chr~ <chr [0~
>>  3 Leia~    150    49 brown      light      brown           19   fema~ femin~ Alderaan  Human   <chr~ <chr [1~
>>  4 Owen~    178   120 brown, gr~ light      blue            52   male  mascu~ Tatooine  Human   <chr~ <chr [0~
>>  5 Beru~    165    75 brown      light      blue            47   fema~ femin~ Tatooine  Human   <chr~ <chr [0~
>>  6 Bigg~    183    84 black      light      brown           24   male  mascu~ Tatooine  Human   <chr~ <chr [0~
>>  7 Obi-~    182    77 auburn, w~ fair       blue-gray       57   male  mascu~ Stewjon   Human   <chr~ <chr [1~
>>  8 Anak~    188    84 blond      fair       blue            41.9 male  mascu~ Tatooine  Human   <chr~ <chr [2~
>>  9 Wilh~    180    NA auburn, g~ fair       blue            64   male  mascu~ Eriadu    Human   <chr~ <chr [0~
>> 10 Han ~    180    80 brown      fair       brown           29   male  mascu~ Corellia  Human   <chr~ <chr [0~
>> # ... with 25 more rows, and 1 more variable: starships <list>
…
starwars[starwars$species == "Human",]
>> # A tibble: 39 x 14
>>    name  height  mass hair_color skin_color eye_color birth_year sex   gender homeworld species films vehicles
>>    <chr>  <int> <dbl> <chr>      <chr>      <chr>          <dbl> <chr> <chr>  <chr>     <chr>   <lis> <list>  
>>  1 Luke~    172    77 blond      fair       blue            19   male  mascu~ Tatooine  Human   <chr~ <chr [2~
>>  2 Dart~    202   136 none       white      yellow          41.9 male  mascu~ Tatooine  Human   <chr~ <chr [0~
>>  3 Leia~    150    49 brown      light      brown           19   fema~ femin~ Alderaan  Human   <chr~ <chr [1~
>>  4 Owen~    178   120 brown, gr~ light      blue            52   male  mascu~ Tatooine  Human   <chr~ <chr [0~
>>  5 Beru~    165    75 brown      light      blue            47   fema~ femin~ Tatooine  Human   <chr~ <chr [0~
>>  6 Bigg~    183    84 black      light      brown           24   male  mascu~ Tatooine  Human   <chr~ <chr [0~
>>  7 Obi-~    182    77 auburn, w~ fair       blue-gray       57   male  mascu~ Stewjon   Human   <chr~ <chr [1~
>>  8 Anak~    188    84 blond      fair       blue            41.9 male  mascu~ Tatooine  Human   <chr~ <chr [2~
>>  9 Wilh~    180    NA auburn, g~ fair       blue            64   male  mascu~ Eriadu    Human   <chr~ <chr [0~
>> 10 Han ~    180    80 brown      fair       brown           29   male  mascu~ Corellia  Human   <chr~ <chr [0~
>> # ... with 29 more rows, and 1 more variable: starships <list>
…
starwars[which(starwars$species == "Human"), , drop = FALSE]
>> # A tibble: 35 x 14
>>    name  height  mass hair_color skin_color eye_color birth_year sex   gender homeworld species films vehicles
>>    <chr>  <int> <dbl> <chr>      <chr>      <chr>          <dbl> <chr> <chr>  <chr>     <chr>   <lis> <list>  
>>  1 Luke~    172    77 blond      fair       blue            19   male  mascu~ Tatooine  Human   <chr~ <chr [2~
>>  2 Dart~    202   136 none       white      yellow          41.9 male  mascu~ Tatooine  Human   <chr~ <chr [0~
>>  3 Leia~    150    49 brown      light      brown           19   fema~ femin~ Alderaan  Human   <chr~ <chr [1~
>>  4 Owen~    178   120 brown, gr~ light      blue            52   male  mascu~ Tatooine  Human   <chr~ <chr [0~
>>  5 Beru~    165    75 brown      light      blue            47   fema~ femin~ Tatooine  Human   <chr~ <chr [0~
>>  6 Bigg~    183    84 black      light      brown           24   male  mascu~ Tatooine  Human   <chr~ <chr [0~
>>  7 Obi-~    182    77 auburn, w~ fair       blue-gray       57   male  mascu~ Stewjon   Human   <chr~ <chr [1~
>>  8 Anak~    188    84 blond      fair       blue            41.9 male  mascu~ Tatooine  Human   <chr~ <chr [2~
>>  9 Wilh~    180    NA auburn, g~ fair       blue            64   male  mascu~ Eriadu    Human   <chr~ <chr [0~
>> 10 Han ~    180    80 brown      fair       brown           29   male  mascu~ Corellia  Human   <chr~ <chr [0~
>> # ... with 25 more rows, and 1 more variable: starships <list>
…
df %>% mutate(z = x + y, z2 = z ^ 2)
>> # A tibble: 100 x 4
>>        x     y     z    z2
>>    <int> <int> <int> <dbl>
>>  1     1     6     7    49
>>  2    10     8    18   324
>>  3    10     7    17   289
>>  4     3     3     6    36
>>  5     6     5    11   121
>>  6     7     9    16   256
>>  7     8     5    13   169
>>  8     1     9    10   100
>>  9     6     8    14   196
>> 10    10     7    17   289
>> # ... with 90 more rows
…
# to front
mtcars %>% relocate(gear, carb) 
>> # A tibble: 32 x 13
>>     gear  carb   mpg   cyl  disp    hp  drat    wt  qsec    vs    am  cy12  cy14
>>    <dbl> <dbl> <dbl> <dbl> <dbl> <dbl> <dbl> <dbl> <dbl> <dbl> <dbl> <dbl> <dbl>
>>  1     4     4  21       6  160    110  3.9   2.62  16.5     0     1    12    24
>>  2     4     4  21       6  160    110  3.9   2.88  17.0     0     1    12    24
>>  3     4     1  22.8     4  108     93  3.85  2.32  18.6     1     1     8    16
>>  4     3     1  21.4     6  258    110  3.08  3.22  19.4     1     0    12    24
>>  5     3     2  18.7     8  360    175  3.15  3.44  17.0     0     0    16    32
>>  6     3     1  18.1     6  225    105  2.76  3.46  20.2     1     0    12    24
>>  7     3     4  14.3     8  360    245  3.21  3.57  15.8     0     0    16    32
>>  8     4     2  24.4     4  147.    62  3.69  3.19  20       1     0     8    16
>>  9     4     2  22.8     4  141.    95  3.92  3.15  22.9     1     0     8    16
>> 10     4     4  19.2     6  168.   123  3.92  3.44  18.3     1     0    12    24
>> # ... with 22 more rows

# to back
mtcars %>% relocate(mpg, cyl, .after = last_col()) 
>> # A tibble: 32 x 13
>>     disp    hp  drat    wt  qsec    vs    am  gear  carb  cy12  cy14   mpg   cyl
>>    <dbl> <dbl> <dbl> <dbl> <dbl> <dbl> <dbl> <dbl> <dbl> <dbl> <dbl> <dbl> <dbl>
>>  1  160    110  3.9   2.62  16.5     0     1     4     4    12    24  21       6
>>  2  160    110  3.9   2.88  17.0     0     1     4     4    12    24  21       6
>>  3  108     93  3.85  2.32  18.6     1     1     4     1     8    16  22.8     4
>>  4  258    110  3.08  3.22  19.4     1     0     3     1    12    24  21.4     6
>>  5  360    175  3.15  3.44  17.0     0     0     3     2    16    32  18.7     8
>>  6  225    105  2.76  3.46  20.2     1     0     3     1    12    24  18.1     6
>>  7  360    245  3.21  3.57  15.8     0     0     3     4    16    32  14.3     8
>>  8  147.    62  3.69  3.19  20       1     0     4     2     8    16  24.4     4
>>  9  141.    95  3.92  3.15  22.9     1     0     4     2     8    16  22.8     4
>> 10  168.   123  3.92  3.44  18.3     1     0     4     4    12    24  19.2     6
>> # ... with 22 more rows

# to after disp
mtcars %>% relocate(mpg, cyl, .after = disp) 
>> # A tibble: 32 x 13
>>     disp   mpg   cyl    hp  drat    wt  qsec    vs    am  gear  carb  cy12  cy14
>>    <dbl> <dbl> <dbl> <dbl> <dbl> <dbl> <dbl> <dbl> <dbl> <dbl> <dbl> <dbl> <dbl>
>>  1  160   21       6   110  3.9   2.62  16.5     0     1     4     4    12    24
>>  2  160   21       6   110  3.9   2.88  17.0     0     1     4     4    12    24
>>  3  108   22.8     4    93  3.85  2.32  18.6     1     1     4     1     8    16
>>  4  258   21.4     6   110  3.08  3.22  19.4     1     0     3     1    12    24
>>  5  360   18.7     8   175  3.15  3.44  17.0     0     0     3     2    16    32
>>  6  225   18.1     6   105  2.76  3.46  20.2     1     0     3     1    12    24
>>  7  360   14.3     8   245  3.21  3.57  15.8     0     0     3     4    16    32
>>  8  147.  24.4     4    62  3.69  3.19  20       1     0     4     2     8    16
>>  9  141.  22.8     4    95  3.92  3.15  22.9     1     0     4     2     8    16
>> 10  168.  19.2     6   123  3.92  3.44  18.3     1     0     4     4    12    24
>> # ... with 22 more rows
…
##to front
mtcars[union(c("gear", "carb"), names(mtcars))]
>> # A tibble: 32 x 13
>>     gear  carb   mpg   cyl  disp    hp  drat    wt  qsec    vs    am  cy12  cy14
>>    <dbl> <dbl> <dbl> <dbl> <dbl> <dbl> <dbl> <dbl> <dbl> <dbl> <dbl> <dbl> <dbl>
>>  1     4     4  21       6  160    110  3.9   2.62  16.5     0     1    12    24
>>  2     4     4  21       6  160    110  3.9   2.88  17.0     0     1    12    24
>>  3     4     1  22.8     4  108     93  3.85  2.32  18.6     1     1     8    16
>>  4     3     1  21.4     6  258    110  3.08  3.22  19.4     1     0    12    24
>>  5     3     2  18.7     8  360    175  3.15  3.44  17.0     0     0    16    32
>>  6     3     1  18.1     6  225    105  2.76  3.46  20.2     1     0    12    24
>>  7     3     4  14.3     8  360    245  3.21  3.57  15.8     0     0    16    32
>>  8     4     2  24.4     4  147.    62  3.69  3.19  20       1     0     8    16
>>  9     4     2  22.8     4  141.    95  3.92  3.15  22.9     1     0     8    16
>> 10     4     4  19.2     6  168.   123  3.92  3.44  18.3     1     0    12    24
>> # ... with 22 more rows

###to back
##先将要移动的列去掉，再重组到后面
to_back <- c("mpg", "cyl")
mtcars[c(setdiff(names(mtcars), to_back), to_back)]
>> # A tibble: 32 x 13
>>     disp    hp  drat    wt  qsec    vs    am  gear  carb  cy12  cy14   mpg   cyl
>>    <dbl> <dbl> <dbl> <dbl> <dbl> <dbl> <dbl> <dbl> <dbl> <dbl> <dbl> <dbl> <dbl>
>>  1  160    110  3.9   2.62  16.5     0     1     4     4    12    24  21       6
>>  2  160    110  3.9   2.88  17.0     0     1     4     4    12    24  21       6
>>  3  108     93  3.85  2.32  18.6     1     1     4     1     8    16  22.8     4
>>  4  258    110  3.08  3.22  19.4     1     0     3     1    12    24  21.4     6
>>  5  360    175  3.15  3.44  17.0     0     0     3     2    16    32  18.7     8
>>  6  225    105  2.76  3.46  20.2     1     0     3     1    12    24  18.1     6
>>  7  360    245  3.21  3.57  15.8     0     0     3     4    16    32  14.3     8
>>  8  147.    62  3.69  3.19  20       1     0     4     2     8    16  24.4     4
>>  9  141.    95  3.92  3.15  22.9     1     0     4     2     8    16  22.8     4
>> 10  168.   123  3.92  3.44  18.3     1     0     4     4    12    24  19.2     6
>> # ... with 22 more rows
…
iris %>% rename(sepal_length = Sepal.Length, sepal_width = 2)
>> # A tibble: 150 x 5
>>    sepal_length sepal_width Petal.Length Petal.Width Species
>>           <dbl>       <dbl>        <dbl>       <dbl> <fct>  
>>  1          5.1         3.5          1.4         0.2 setosa 
>>  2          4.9         3            1.4         0.2 setosa 
>>  3          4.7         3.2          1.3         0.2 setosa 
>>  4          4.6         3.1          1.5         0.2 setosa 
>>  5          5           3.6          1.4         0.2 setosa 
>>  6          5.4         3.9          1.7         0.4 setosa 
>>  7          4.6         3.4          1.4         0.3 setosa 
>>  8          5           3.4          1.5         0.2 setosa 
>>  9          4.4         2.9          1.4         0.2 setosa 
>> 10          4.9         3.1          1.5         0.1 setosa 
>> # ... with 140 more rows
…
iris %>% rename_with(toupper)
>> # A tibble: 150 x 5
>>    SEPAL.LENGTH SEPAL.WIDTH PETAL.LENGTH PETAL.WIDTH SPECIES
>>           <dbl>       <dbl>        <dbl>       <dbl> <fct>  
>>  1          5.1         3.5          1.4         0.2 setosa 
>>  2          4.9         3            1.4         0.2 setosa 
>>  3          4.7         3.2          1.3         0.2 setosa 
>>  4          4.6         3.1          1.5         0.2 setosa 
>>  5          5           3.6          1.4         0.2 setosa 
>>  6          5.4         3.9          1.7         0.4 setosa 
>>  7          4.6         3.4          1.4         0.3 setosa 
>>  8          5           3.4          1.5         0.2 setosa 
>>  9          4.4         2.9          1.4         0.2 setosa 
>> 10          4.9         3.1          1.5         0.1 setosa 
>> # ... with 140 more rows

###也可以选择范围，默认是所有列
rename_with(iris, toupper, starts_with("Petal"))
>> # A tibble: 150 x 5
>>    Sepal.Length Sepal.Width PETAL.LENGTH PETAL.WIDTH Species
>>           <dbl>       <dbl>        <dbl>       <dbl> <fct>  
>>  1          5.1         3.5          1.4         0.2 setosa 
>>  2          4.9         3            1.4         0.2 setosa 
>>  3          4.7         3.2          1.3         0.2 setosa 
>>  4          4.6         3.1          1.5         0.2 setosa 
>>  5          5           3.6          1.4         0.2 setosa 
>>  6          5.4         3.9          1.7         0.4 setosa 
>>  7          4.6         3.4          1.4         0.3 setosa 
>>  8          5           3.4          1.5         0.2 setosa 
>>  9          4.4         2.9          1.4         0.2 setosa 
>> 10          4.9         3.1          1.5         0.1 setosa 
>> # ... with 140 more rows
…
