…
## ROC, PRC

ROC 曲线的横纵坐标分别是假阳性率（FPR，也叫 1 - Specificity）和真阳性率（TPR，recall 或 sensitivity）；PRC 曲线的的横纵坐标分别是 recall 和 precision；这两种曲线都是在不同的预测概率阈值下计算横纵坐标的值，然后绘制相应的曲线。

R 里面可以使用 `roc_curve` 计算不同阈值处的 TPR 和 FPR，然后再使用 ggplot2 可视化，也可以直接用 `autoplot` 函数一步到位：

``` r
roc_curve(two_class_example, truth, Class1)
>> # A tibble: 502 x 3
>>    .threshold specificity sensitivity
>>         <dbl>       <dbl>       <dbl>
>>  1 -Inf           0                 1
>>  2    1.79e-7     0                 1
>>  3    4.50e-6     0.00413           1
>>  4    5.81e-6     0.00826           1
>>  5    5.92e-6     0.0124            1
>>  6    1.22e-5     0.0165            1
>>  7    1.40e-5     0.0207            1
>>  8    1.43e-5     0.0248            1
>>  9    2.38e-5     0.0289            1
>> 10    3.30e-5     0.0331            1
>> # ... with 492 more rows
…
PR 曲线也是类似，使用函数 `pr_curve` ：

``` r
pr_curve(two_class_example, truth, Class1)
>> # A tibble: 501 x 3
>>    .threshold  recall precision
>>         <dbl>   <dbl>     <dbl>
>>  1     Inf    0               1
>>  2       1.00 0.00388         1
>>  3       1.00 0.00775         1
>>  4       1.00 0.0116          1
>>  5       1.00 0.0155          1
>>  6       1.00 0.0194          1
>>  7       1.00 0.0233          1
>>  8       1.00 0.0271          1
>>  9       1.00 0.0310          1
>> 10       1.00 0.0349          1
>> # ... with 491 more rows
…
