…
-   和 `distinct` 一起用：

    ``` r
    ##看所有含有颜色变量有多少种类
    starwars %>% distinct(across(contains("color")))
    >> # A tibble: 67 x 3
    >>    hair_color    skin_color  eye_color
    >>    <chr>         <chr>       <chr>    
    >>  1 blond         fair        blue     
    >>  2 <NA>          gold        yellow   
    >>  3 <NA>          white, blue red      
    >>  4 none          white       yellow   
    >>  5 brown         light       brown    
    >>  6 brown, grey   light       blue     
    >>  7 brown         light       blue     
    >>  8 <NA>          white, red  red      
    >>  9 black         light       brown    
    >> 10 auburn, white fair        blue-gray
    >> # ... with 57 more rows
    ```

-   和 `count` 一起用：

    ``` r
    starwars %>% count(across(contains("color")), sort = TRUE)
    >> # A tibble: 67 x 4
    >>    hair_color skin_color eye_color     n
    >>    <chr>      <chr>      <chr>     <int>
    >>  1 brown      light      brown         6
    >>  2 brown      fair       blue          4
    >>  3 none       grey       black         4
    >>  4 black      dark       brown         3
    >>  5 blond      fair       blue          3
    >>  6 black      fair       brown         2
    >>  7 black      tan        brown         2
    >>  8 black      yellow     blue          2
    >>  9 brown      fair       brown         2
    >> 10 none       white      yellow        2
    >> # ... with 57 more rows
    ```

-   和 `filter` 一起用：

    ``` r
    ###没有缺失值的变量的所有行
    starwars %>% filter(across(everything(), ~ !is.na(.x)))
    >> # A tibble: 29 x 14
    >>    name      height  mass hair_color skin_color eye_color
    >>    <chr>      <int> <dbl> <chr>      <chr>      <chr>    
    >>  1 Luke Sky~    172    77 blond      fair       blue     
    >>  2 Darth Va~    202   136 none       white      yellow   
    >>  3 Leia Org~    150    49 brown      light      brown    
    >>  4 Owen Lars    178   120 brown, gr~ light      blue     
    >>  5 Beru Whi~    165    75 brown      light      blue     
    >>  6 Biggs Da~    183    84 black      light      brown    
    >>  7 Obi-Wan ~    182    77 auburn, w~ fair       blue-gray
    >>  8 Anakin S~    188    84 blond      fair       blue     
    >>  9 Chewbacca    228   112 brown      unknown    blue     
    >> 10 Han Solo     180    80 brown      fair       brown    
    >> # ... with 19 more rows, and 8 more variables:
    >> #   birth_year <dbl>, sex <chr>, gender <chr>,
    >> #   homeworld <chr>, species <chr>, films <list>,
    >> #   vehicles <list>, starships <list>
    
    ##选择至少有一列不是 NA 的行
    starwars %>% 
    filter(if_any(everything(), ~ !is.na(.x)))
    >> # A tibble: 87 x 14
    >>    name      height  mass hair_color skin_color eye_color
    >>    <chr>      <int> <dbl> <chr>      <chr>      <chr>    
    >>  1 Luke Sky~    172    77 blond      fair       blue     
    >>  2 C-3PO        167    75 <NA>       gold       yellow   
    >>  3 R2-D2         96    32 <NA>       white, bl~ red      
    >>  4 Darth Va~    202   136 none       white      yellow   
    >>  5 Leia Org~    150    49 brown      light      brown    
    >>  6 Owen Lars    178   120 brown, gr~ light      blue     
    >>  7 Beru Whi~    165    75 brown      light      blue     
    >>  8 R5-D4         97    32 <NA>       white, red red      
    >>  9 Biggs Da~    183    84 black      light      brown    
    >> 10 Obi-Wan ~    182    77 auburn, w~ fair       blue-gray
    >> # ... with 77 more rows, and 8 more variables:
    >> #   birth_year <dbl>, sex <chr>, gender <chr>,
    >> #   homeworld <chr>, species <chr>, films <list>,
    >> #   vehicles <list>, starships <list>
    
    ##选择所有的列都不是NA的行
    starwars %>% 
    filter(if_all(everything(), ~ !is.na(.x)))
    >> # A tibble: 29 x 14
    >>    name      height  mass hair_color skin_color eye_color
    >>    <chr>      <int> <dbl> <chr>      <chr>      <chr>    
    >>  1 Luke Sky~    172    77 blond      fair       blue     
    >>  2 Darth Va~    202   136 none       white      yellow   
    >>  3 Leia Org~    150    49 brown      light      brown    
    >>  4 Owen Lars    178   120 brown, gr~ light      blue     
    >>  5 Beru Whi~    165    75 brown      light      blue     
    >>  6 Biggs Da~    183    84 black      light      brown    
    >>  7 Obi-Wan ~    182    77 auburn, w~ fair       blue-gray
    >>  8 Anakin S~    188    84 blond      fair       blue     
    >>  9 Chewbacca    228   112 brown      unknown    blue     
    >> 10 Han Solo     180    80 brown      fair       brown    
    >> # ... with 19 more rows, and 8 more variables:
    >> #   birth_year <dbl>, sex <chr>, gender <chr>,
    >> #   homeworld <chr>, species <chr>, films <list>,
    >> #   vehicles <list>, starships <list>
    ```
